Chapter 8 Artikel beoordelen op reproduceerbaarheid | Portfolio Workflows
…
# Controleer of de juiste data is geselecteerd
fig1e_data

## # A tibble: 28 × 3
##    SEASON  WEEK  `NUM INFLUENZA DEATHS`
##    <chr>   <fct>                  <dbl>
##  1 2023-24 40                         6
##  2 2023-24 41                        12
##  3 2023-24 42                        11
##  4 2023-24 43                         7
##  5 2023-24 44                        21
##  6 2023-24 45                        17
##  7 2023-24 46                        29
##  8 2023-24 47                        42
##  9 2023-24 48                        38
## 10 2023-24 49                        69
## # ℹ 18 more rows
…
